{
    "apps": [
        {
            "name": "Web Application",
            "script": "./dist/Server.js",
            "watch": false,
            "env": {
                "NODE_ENV": "production"
            },
            "instances": "max",
            "exec_mode": "cluster"
        }
    ]
}